<svg xmlns="http://www.w3.org/2000/svg" xmlns:xlink="http://www.w3.org/1999/xlink" width="32" height="32" viewBox="0 0 32 32">
    <defs>
        <circle id="a" cx="16" cy="16" r="16"/>
        <path id="c" d="M0 0h3.376v3.21A1.688 1.688 0 1 1 0 3.21V0z"/>
    </defs>
    <g fill="none" fill-rule="evenodd">
        <mask id="b" fill="#fff">
            <use xlink:href="#a"/>
        </mask>
        <use fill="#EDF0F1" xlink:href="#a"/>
        <g mask="url(#b)">
            <g transform="translate(6.8 2.996)">
                <path fill="#FF9E42" d="M3.914 23.632l5.31-.838 5.31.838a4.637 4.637 0 0 1 3.915 4.58V39.75H0V28.212a4.637 4.637 0 0 1 3.914-4.58z"/>
                <g transform="translate(7.322 20.446)">
                    <mask id="d" fill="#fff">
                        <use xlink:href="#c"/>
                    </mask>
                    <use fill="#FFB5B5" xlink:href="#c"/>
                    <circle cx="1.569" r="2.996" fill="#F3A2A2" mask="url(#d)" opacity=".645"/>
                </g>
                <path fill="#FFA2A2" stroke="#FFB5B5" stroke-width=".5" d="M13.456 14.597h.244a.435.435 0 0 1 .428.51l-.229 1.317a.435.435 0 0 1-.428.36h-.015v-2.187zM4.755 14.597H4.51a.435.435 0 0 0-.428.51l.229 1.317c.036.209.217.36.428.36h.015v-2.187z"/>
                <path fill="#FFB5B5" d="M4.66 7.655h8.844v10.1a4.83 4.83 0 0 1-.46 2.058c-.264.56-.538 1.002-.822 1.33-.36.414-.902.833-1.627 1.256-.37.216-.79.33-1.217.33h-.866c-.532 0-1.05-.177-1.472-.502-.529-.407-.91-.763-1.141-1.068-.224-.294-.49-.778-.8-1.453a4.83 4.83 0 0 1-.44-2.014V7.655z"/>
                <path stroke="#4C2500" stroke-linejoin="round" stroke-width=".5" d="M11.868 13.883a1.304 1.304 0 0 0-1.74.1" opacity=".8"/>
                <path stroke="#704224" stroke-linejoin="round" stroke-width=".5" d="M6.324 13.883a1.304 1.304 0 0 1 1.74.1"/>
                <path fill="#4C2500" d="M4.66 16.843l.287.657a1.673 1.673 0 0 0 2.467.72 2.952 2.952 0 0 1 3.318.015l.01.007a1.69 1.69 0 0 0 2.496-.697l.266-.588v3.529a3.526 3.526 0 0 1-3.526 3.526H8.186a3.526 3.526 0 0 1-3.526-3.526v-3.643z"/>
                <path fill="#FFF" d="M9.12 19.556c.722 0 1.107-.242 1.156-.727H7.882c.104.485.516.727 1.238.727z"/>
                <circle cx="7.251" cy="14.669" r="1" fill="#231100"/>
                <circle cx="11.055" cy="14.669" r="1" fill="#231100"/>
                <path fill="#F3A2A2" d="M9.056 14.837l.622 2.553h-1.19z"/>
                <g transform="matrix(-1 0 0 1 5.04 12.077)">
                    <path fill="#FFA2A2" d="M0 .118l.366 2.354V.022z"/>
                    <circle cx=".145" cy=".383" r="1" fill="#FF8989" opacity=".5"/>
                    <circle cx=".193" cy=".953" r="1" fill="#FF8989"/>
                    <circle cx=".288" cy="1.191" r="1" fill="#FF8989" opacity=".5"/>
                    <circle cx=".288" cy="1.524" r="1" fill="#FF8989"/>
                    <circle cx=".288" cy=".668" r="1" fill="#FF8989" opacity=".5"/>
                </g>
                <path fill="#4C2500" d="M15.458 5.262a2.805 2.805 0 0 1-3.782 4.141 3.173 3.173 0 0 1-2.024.725c-.368 0-.721-.063-1.05-.178a3.687 3.687 0 0 1-7.223-1.035c0-1.175.55-2.221 1.406-2.896a2.782 2.782 0 0 1 3.058-4.21 2.474 2.474 0 0 1 4.448-.697 3.685 3.685 0 0 1 5.167 4.15z"/>
                <g transform="translate(13.17 12.077)">
                    <path fill="#FFA2A2" d="M0 .097l.333 2.376V0z"/>
                    <circle cx=".145" cy=".383" r="1" fill="#FF8989" opacity=".5"/>
                    <circle cx=".193" cy=".953" r="1" fill="#FF8989"/>
                    <circle cx=".288" cy="1.191" r="1" fill="#FF8989" opacity=".5"/>
                    <circle cx=".288" cy="1.524" r="1" fill="#FF8989"/>
                    <circle cx=".288" cy=".668" r="1" fill="#FF8989" opacity=".5"/>
                </g>
                <path fill="#4C2500" d="M13.189 12.264c.877-.062 1.317-.807 1.255-1.685-.061-.877-.707-1.52-1.585-1.46l.33 3.145z"/>
            </g>
        </g>
    </g>
</svg>
